EESchema Schematic File Version 4
EELAYER 30 0
EELAYER END
$Descr A4 11693 8268
encoding utf-8
Sheet 1 1
Title "12V PC fan controller"
Date "2020-07-06"
Rev ""
Comp ""
Comment1 ""
Comment2 ""
Comment3 ""
Comment4 ""
$EndDescr
$Comp
L MCU_Module:Arduino_UNO_R2 A1
U 1 1 5F03EEF0
P 6300 3500
F 0 "A1" H 6300 4681 50  0000 C CNN
F 1 "Arduino_Diecimila" H 6300 4590 50  0000 C CNN
F 2 "Module:Arduino_UNO_R2" H 6300 3500 50  0001 C CIN
F 3 "https://www.arduino.cc/en/Main/arduinoBoardUno" H 6300 3500 50  0001 C CNN
	1    6300 3500
	1    0    0    -1  
$EndComp
$Comp
L power:GND #PWR0101
U 1 1 5F04667E
P 5250 5050
F 0 "#PWR0101" H 5250 4800 50  0001 C CNN
F 1 "GND" H 5255 4877 50  0000 C CNN
F 2 "" H 5250 5050 50  0001 C CNN
F 3 "" H 5250 5050 50  0001 C CNN
	1    5250 5050
	1    0    0    -1  
$EndComp
Wire Wire Line
	5300 5000 5250 5000
Wire Wire Line
	5200 4900 5250 4900
$Comp
L power:+12V #PWR0102
U 1 1 5F046AAE
P 5250 4850
F 0 "#PWR0102" H 5250 4700 50  0001 C CNN
F 1 "+12V" H 5265 5023 50  0000 C CNN
F 2 "" H 5250 4850 50  0001 C CNN
F 3 "" H 5250 4850 50  0001 C CNN
	1    5250 4850
	1    0    0    -1  
$EndComp
$Comp
L power:+12V #PWR0103
U 1 1 5F055463
P 6200 2300
F 0 "#PWR0103" H 6200 2150 50  0001 C CNN
F 1 "+12V" H 6215 2473 50  0000 C CNN
F 2 "" H 6200 2300 50  0001 C CNN
F 3 "" H 6200 2300 50  0001 C CNN
	1    6200 2300
	1    0    0    -1  
$EndComp
Wire Wire Line
	6200 2300 6200 2500
$Comp
L power:+5V #PWR0104
U 1 1 5F05596F
P 6500 2300
F 0 "#PWR0104" H 6500 2150 50  0001 C CNN
F 1 "+5V" H 6515 2473 50  0000 C CNN
F 2 "" H 6500 2300 50  0001 C CNN
F 3 "" H 6500 2300 50  0001 C CNN
	1    6500 2300
	1    0    0    -1  
$EndComp
Wire Wire Line
	6500 2300 6500 2500
$Comp
L power:GND #PWR0105
U 1 1 5F0590BF
P 6400 4650
F 0 "#PWR0105" H 6400 4400 50  0001 C CNN
F 1 "GND" H 6405 4477 50  0000 C CNN
F 2 "" H 6400 4650 50  0001 C CNN
F 3 "" H 6400 4650 50  0001 C CNN
	1    6400 4650
	1    0    0    -1  
$EndComp
Wire Wire Line
	6400 4600 6400 4650
$Comp
L Device:R_POT_TRIM RV1
U 1 1 5F05AC5C
P 7200 3500
F 0 "RV1" H 7130 3454 50  0000 R CNN
F 1 "10k" H 7130 3545 50  0000 R CNN
F 2 "" H 7200 3500 50  0001 C CNN
F 3 "~" H 7200 3500 50  0001 C CNN
	1    7200 3500
	-1   0    0    1   
$EndComp
Wire Wire Line
	7050 3500 6800 3500
$Comp
L power:+5V #PWR0106
U 1 1 5F05B664
P 7200 3300
F 0 "#PWR0106" H 7200 3150 50  0001 C CNN
F 1 "+5V" H 7215 3473 50  0000 C CNN
F 2 "" H 7200 3300 50  0001 C CNN
F 3 "" H 7200 3300 50  0001 C CNN
	1    7200 3300
	1    0    0    -1  
$EndComp
$Comp
L power:GND #PWR0107
U 1 1 5F05B9EF
P 7200 3700
F 0 "#PWR0107" H 7200 3450 50  0001 C CNN
F 1 "GND" H 7205 3527 50  0000 C CNN
F 2 "" H 7200 3700 50  0001 C CNN
F 3 "" H 7200 3700 50  0001 C CNN
	1    7200 3700
	1    0    0    -1  
$EndComp
Wire Wire Line
	7200 3700 7200 3650
Wire Wire Line
	7200 3300 7200 3350
$Comp
L Device:R R4
U 1 1 5F05D36C
P 5450 4000
F 0 "R4" H 5520 4046 50  0000 L CNN
F 1 "1k" H 5520 3955 50  0000 L CNN
F 2 "" V 5380 4000 50  0001 C CNN
F 3 "~" H 5450 4000 50  0001 C CNN
	1    5450 4000
	1    0    0    -1  
$EndComp
Wire Wire Line
	5450 3850 5450 3800
$Comp
L Device:R R3
U 1 1 5F06045E
P 5450 3300
F 0 "R3" H 5520 3346 50  0000 L CNN
F 1 "56k" H 5520 3255 50  0000 L CNN
F 2 "" V 5380 3300 50  0001 C CNN
F 3 "~" H 5450 3300 50  0001 C CNN
	1    5450 3300
	1    0    0    -1  
$EndComp
$Comp
L Device:R R2
U 1 1 5F060A7E
P 5450 2900
F 0 "R2" H 5520 2946 50  0000 L CNN
F 1 "82k" H 5520 2855 50  0000 L CNN
F 2 "" V 5380 2900 50  0001 C CNN
F 3 "~" H 5450 2900 50  0001 C CNN
	1    5450 2900
	1    0    0    -1  
$EndComp
$Comp
L power:GND #PWR0108
U 1 1 5F0676FE
P 5450 3500
F 0 "#PWR0108" H 5450 3250 50  0001 C CNN
F 1 "GND" H 5455 3327 50  0000 C CNN
F 2 "" H 5450 3500 50  0001 C CNN
F 3 "" H 5450 3500 50  0001 C CNN
	1    5450 3500
	1    0    0    -1  
$EndComp
Wire Wire Line
	5450 3450 5450 3500
Wire Wire Line
	5450 3150 5450 3100
Wire Wire Line
	5450 2750 5450 2700
Wire Wire Line
	5450 2350 5450 2300
Connection ~ 5450 3100
Wire Wire Line
	5450 3100 5450 3050
Connection ~ 5450 2700
Wire Wire Line
	5450 2700 5450 2650
Connection ~ 5450 3800
Wire Wire Line
	5200 2700 5200 2950
Wire Wire Line
	5200 2700 5450 2700
Wire Wire Line
	5200 3800 5200 3050
Wire Wire Line
	5200 3800 5450 3800
Wire Wire Line
	5050 2800 5050 3150
$Comp
L power:GND #PWR0110
U 1 1 5F0819CF
P 5050 3300
F 0 "#PWR0110" H 5050 3050 50  0001 C CNN
F 1 "GND" H 5055 3127 50  0000 C CNN
F 2 "" H 5050 3300 50  0001 C CNN
F 3 "" H 5050 3300 50  0001 C CNN
	1    5050 3300
	1    0    0    -1  
$EndComp
Wire Wire Line
	5050 3250 5050 3300
$Comp
L Connector_Generic:Conn_01x02 J1
U 1 1 5F04578D
P 5500 4900
F 0 "J1" H 5580 4892 50  0000 L CNN
F 1 "PWR" H 5580 4801 50  0000 L CNN
F 2 "" H 5500 4900 50  0001 C CNN
F 3 "~" H 5500 4900 50  0001 C CNN
	1    5500 4900
	1    0    0    -1  
$EndComp
Wire Wire Line
	5450 4150 5450 4200
$Comp
L power:GND #PWR0111
U 1 1 5F05DE40
P 5450 4200
F 0 "#PWR0111" H 5450 3950 50  0001 C CNN
F 1 "GND" H 5455 4027 50  0000 C CNN
F 2 "" H 5450 4200 50  0001 C CNN
F 3 "" H 5450 4200 50  0001 C CNN
	1    5450 4200
	1    0    0    -1  
$EndComp
Text Notes 4700 5500 0    50   ~ 0
PWR SEL jumper set to EXT\n12V power supply connected to J1
$Comp
L power:+12V #PWR0112
U 1 1 5F098594
P 5450 2300
F 0 "#PWR0112" H 5450 2150 50  0001 C CNN
F 1 "+12V" H 5465 2473 50  0000 C CNN
F 2 "" H 5450 2300 50  0001 C CNN
F 3 "" H 5450 2300 50  0001 C CNN
	1    5450 2300
	1    0    0    -1  
$EndComp
Wire Wire Line
	5200 3050 4900 3050
Wire Wire Line
	5200 2950 4900 2950
Wire Wire Line
	4900 3250 5050 3250
Wire Wire Line
	5050 3150 4900 3150
$Comp
L Connector:Conn_01x04_Male J2
U 1 1 5F07A1F3
P 4700 3050
F 0 "J2" H 4808 3331 50  0000 C CNN
F 1 "FAN" H 4808 3240 50  0000 C CNN
F 2 "" H 4700 3050 50  0001 C CNN
F 3 "~" H 4700 3050 50  0001 C CNN
	1    4700 3050
	1    0    0    -1  
$EndComp
$Comp
L power:+12V #PWR0109
U 1 1 5F080551
P 5050 2800
F 0 "#PWR0109" H 5050 2650 50  0001 C CNN
F 1 "+12V" H 5065 2973 50  0000 C CNN
F 2 "" H 5050 2800 50  0001 C CNN
F 3 "" H 5050 2800 50  0001 C CNN
	1    5050 2800
	1    0    0    -1  
$EndComp
$Comp
L Device:R R1
U 1 1 5F0610D3
P 5450 2500
F 0 "R1" H 5520 2546 50  0000 L CNN
F 1 "2.7k" H 5520 2455 50  0000 L CNN
F 2 "" V 5380 2500 50  0001 C CNN
F 3 "~" H 5450 2500 50  0001 C CNN
	1    5450 2500
	1    0    0    -1  
$EndComp
$Comp
L power:PWR_FLAG #FLG0101
U 1 1 5F0BE7DF
P 5200 4900
F 0 "#FLG0101" H 5200 4975 50  0001 C CNN
F 1 "PWR_FLAG" V 5200 5027 50  0000 L CNN
F 2 "" H 5200 4900 50  0001 C CNN
F 3 "~" H 5200 4900 50  0001 C CNN
	1    5200 4900
	0    -1   -1   0   
$EndComp
$Comp
L power:PWR_FLAG #FLG0102
U 1 1 5F0BEF2D
P 5200 5000
F 0 "#FLG0102" H 5200 5075 50  0001 C CNN
F 1 "PWR_FLAG" V 5200 5127 50  0000 L CNN
F 2 "" H 5200 5000 50  0001 C CNN
F 3 "~" H 5200 5000 50  0001 C CNN
	1    5200 5000
	0    -1   -1   0   
$EndComp
Wire Wire Line
	5250 5050 5250 5000
Connection ~ 5250 5000
Wire Wire Line
	5250 5000 5200 5000
Wire Wire Line
	5250 4850 5250 4900
Connection ~ 5250 4900
Wire Wire Line
	5250 4900 5300 4900
NoConn ~ 5800 2900
NoConn ~ 5800 3000
NoConn ~ 5800 3200
NoConn ~ 5800 3300
NoConn ~ 5800 3400
NoConn ~ 5800 3500
NoConn ~ 5800 3600
NoConn ~ 5800 3700
NoConn ~ 5800 3900
NoConn ~ 5800 4000
NoConn ~ 5800 4100
NoConn ~ 5800 4200
NoConn ~ 6200 4600
NoConn ~ 6300 4600
NoConn ~ 6800 4000
NoConn ~ 6800 3900
NoConn ~ 6800 3800
NoConn ~ 6800 3700
NoConn ~ 6800 3600
NoConn ~ 6800 3300
NoConn ~ 6800 3100
NoConn ~ 6800 2900
NoConn ~ 6400 2500
Wire Wire Line
	5450 3100 5800 3100
Wire Wire Line
	5450 3800 5800 3800
$EndSCHEMATC
